[
  {
    "id": "prod1",
    "name": "Almond Toe Court Shoes,Patent Black",
    "type": [
      "women",
      "footwear"
    ],
    "price": 99.00,
    "quantity": 5
  },
  {
    "id": "prod2",
    "name": "Suede Shoes, Blue",
    "type": [
      "women",
      "footwear"
    ],
    "price": 42.00,
    "quantity": 4
  },
  {
    "id": "prod3",
    "name": "Leather Driver Saddle Loafers, Tan",
    "type": [
      "men",
      "footwear"
    ],
    "price": 34.00,
    "quantity": 12
  },
  {
    "id": "prod4",
    "name": "Flip Flops, Red",
    "type": [
      "men",
      "footwear"
    ],
    "price": 19.00,
    "quantity": 6
  },
  {
    "id": "prod5",
    "name": "Flip Flops, Blue",
    "type": [
      "men",
      "footwear"
    ],
    "price": 19.00,
    "quantity": 0
  },
  {
    "id": "prod6",
    "name": "Gold Button Cardigan, Black",
    "type": [
      "women",
      "casualwear"
    ],
    "price": 167.00,
    "quantity": 6
  },
  {
    "id": "prod7",
    "name": "Cotton Shorts, Medium Red",
    "type": [
      "women",
      "casualwear"
    ],
    "price": 30.00,
    "quantity": 5
  },
  {
    "id": "prod8",
    "name": "Fine Stripe Short Sleeve Shirt, Grey",
    "type": [
      "men",
      "casualwear"
    ],
    "price": 49.99,
    "quantity": 9
  },
  {
    "id": "prod9",
    "name": "Fine Stripe Short Sleeve Shirt, Green",
    "type": [
      "men",
      "casualwear"
    ],
    "price": 39.99,
    "quantity": 3
  },
  {
    "id": "prod10",
    "name": "Sharkskin Waistcoat, Charcoal",
    "type": [
      "men",
      "formalwear"
    ],
    "price": 75.00,
    "quantity": 2
  },
  {
    "id": "prod11",
    "name": "Lightweight Patch Pocket Blazer, Deer",
    "type": [
      "men",
      "formalwear"
    ],
    "price": 175.50,
    "quantity": 1
  },
  {
    "id": "prod12",
    "name": "Bird Print Dress, Black",
    "type": [
      "women",
      "formalwear"
    ],
    "price": 270.00,
    "quantity": 10
  },
  {
    "id": "prod13",
    "name": "Mid Twist Cut-Out Dress, Pink",
    "type": [
      "women",
      "formalwear"
    ],
    "price": 540.00,
    "quantity": 5
  }
]